-------------------------------------------------------------------------------
Test set: ufro.iso.ActividadDocker.ActividadDockerApplicationTests
-------------------------------------------------------------------------------
Tests run: 1, Failures: 0, Errors: 0, Skipped: 0, Time elapsed: 3.837 s - in ufro.iso.ActividadDocker.ActividadDockerApplicationTests
