/home/andrew/Escritorio/cosas_de_la_u/ISO/ActividadDocker/ActividadDocker/src/main/java/ufro/iso/ActividadDocker/Model/Usuario.java
/home/andrew/Escritorio/cosas_de_la_u/ISO/ActividadDocker/ActividadDocker/src/main/java/ufro/iso/ActividadDocker/Controller/VisualizarController.java
/home/andrew/Escritorio/cosas_de_la_u/ISO/ActividadDocker/ActividadDocker/src/main/java/ufro/iso/ActividadDocker/Model/Reponedor.java
/home/andrew/Escritorio/cosas_de_la_u/ISO/ActividadDocker/ActividadDocker/src/main/java/ufro/iso/ActividadDocker/Model/Merma.java
/home/andrew/Escritorio/cosas_de_la_u/ISO/ActividadDocker/ActividadDocker/src/main/java/ufro/iso/ActividadDocker/Model/Producto.java
/home/andrew/Escritorio/cosas_de_la_u/ISO/ActividadDocker/ActividadDocker/src/main/java/ufro/iso/ActividadDocker/Model/Cajero.java
/home/andrew/Escritorio/cosas_de_la_u/ISO/ActividadDocker/ActividadDocker/src/main/java/ufro/iso/ActividadDocker/ActividadDockerApplication.java
